Week 1 - Homework
…
(a) Install and load the ggplot2 package. Do not include the installation command in your .Rmd file. (If you do it will install the package every time you knit your file.) Do include the command to load the package into your environment.

Solution:

# Include the first line if you want to suppress the messages that result from executing the library() command.
suppressMessages(library(ggplot2))
library(ggplot2)

(b) Note that this dataset is technically a tibble, not a data frame. How many observations are in this dataset? How many variables? What are the observations in this dataset?

Solution:

msleep

## # A tibble: 83 x 11
##    name  genus vore  order conservation sleep_total sleep_rem sleep_cycle
##    <chr> <chr> <chr> <chr> <chr>              <dbl>     <dbl>       <dbl>
##  1 Chee~ Acin~ carni Carn~ lc                  12.1      NA        NA    
##  2 Owl ~ Aotus omni  Prim~ <NA>                17         1.8      NA    
##  3 Moun~ Aplo~ herbi Rode~ nt                  14.4       2.4      NA    
##  4 Grea~ Blar~ omni  Sori~ lc                  14.9       2.3       0.133
##  5 Cow   Bos   herbi Arti~ domesticated         4         0.7       0.667
##  6 Thre~ Brad~ herbi Pilo~ <NA>                14.4       2.2       0.767
##  7 Nort~ Call~ carni Carn~ vu                   8.7       1.4       0.383
##  8 Vesp~ Calo~ <NA>  Rode~ <NA>                 7        NA        NA    
##  9 Dog   Canis carni Carn~ domesticated        10.1       2.9       0.333
## 10 Roe ~ Capr~ herbi Arti~ lc                   3        NA        NA    
## # ... with 73 more rows, and 3 more variables: awake <dbl>, brainwt <dbl>,
## #   bodywt <dbl>
…
mean(subset(msleep, vore == "carni")$bodywt, na.rm = TRUE)

## [1] 90.75111

Exercise 2 (Plotting)

For this exercise, we will use the birthwt dataset from the MASS package.

(a) Note that this dataset is a data frame and all of the variables are numeric. How many observations are in this dataset? How many variables? What are the observations in this dataset?

library(MASS)
library(tibble)
as_tibble(birthwt)

## # A tibble: 189 x 10
##      low   age   lwt  race smoke   ptl    ht    ui   ftv   bwt
##    <int> <int> <int> <int> <int> <int> <int> <int> <int> <int>
##  1     0    19   182     2     0     0     0     1     0  2523
##  2     0    33   155     3     0     0     0     0     3  2551
##  3     0    20   105     1     1     0     0     0     1  2557
##  4     0    21   108     1     1     0     0     1     2  2594
##  5     0    18   107     1     1     0     0     1     0  2600
##  6     0    21   124     3     0     0     0     0     0  2622
##  7     0    22   118     1     0     0     0     0     1  2637
##  8     0    17   103     3     0     0     0     0     1  2637
##  9     0    29   123     1     1     0     0     0     1  2663
## 10     0    26   113     1     1     0     0     0     0  2665
## # ... with 179 more rows
…
